--Timestamp---	Temp	Chill	HIndex	Humid	Dewpt	 Wind 	HiWind	WindDir	Rain 	Barom	Solar	 ET  	 UV 
--------------	----	-----	------	-----	-----	------	------	-------	-----	-----	-----	-----	----
20080807 00:00	65.8	65.8	65.8	96	64.6	0	1	135	0.00	29.859	0	0.000	-100000.0
20080807 00:05	65.9	65.9	65.9	96	64.7	1	3	135	0.00	29.859	0	0.000	-100000.0
20080807 00:10	65.9	65.9	65.9	96	64.7	0	1	135	0.00	29.859	0	0.000	-100000.0
20080807 00:15	65.8	65.8	65.8	96	64.6	0	1	90	0.00	29.856	0	0.000	-100000.0
20080807 00:20	65.7	65.7	65.7	96	64.5	0	0	-100000	0.00	29.856	0	0.000	-100000.0
20080807 00:25	65.6	65.6	65.6	96	64.4	0	0	-100000	0.00	29.856	0	0.000	-100000.0
20080807 00:30	65.4	65.4	65.4	96	64.2	0	1	90	0.00	29.855	0	0.000	-100000.0
20080807 00:35	65.4	65.4	65.4	96	64.2	1	3	135	0.00	29.855	0	0.000	-100000.0
20080807 00:40	65.5	65.5	65.5	96	64.3	1	4	225	0.00	29.855	0	0.000	-100000.0
20080807 00:45	65.6	65.6	65.6	96	64.4	1	4	158	0.00	29.856	0	0.000	-100000.0
20080807 00:50	65.7	65.7	65.7	96	64.5	1	2	202	0.00	29.856	0	0.000	-100000.0
20080807 00:55	65.7	65.7	65.7	96	64.5	0	1	158	0.00	29.856	0	0.000	-100000.0
20080807 01:00	65.8	65.8	65.8	96	64.6	0	0	-100000	0.00	29.857	0	0.000	-100000.0
20080807 01:05	65.9	65.9	65.9	96	64.7	0	0	-100000	0.00	29.857	0	0.000	-100000.0
20080807 01:10	65.7	65.7	65.7	96	64.5	0	2	270	0.00	29.857	0	0.000	-100000.0
20080807 01:15	65.5	65.5	65.5	96	64.3	0	1	338	0.00	29.855	0	0.000	-100000.0
20080807 01:20	65.5	65.5	65.5	96	64.3	0	1	338	0.00	29.855	0	0.000	-100000.0
20080807 01:25	65.6	65.6	65.6	96	64.4	0	1	338	0.00	29.855	0	0.000	-100000.0
20080807 01:30	65.5	65.5	65.5	96	64.3	0	0	-100000	0.00	29.847	0	0.000	-100000.0
20080807 01:35	65.5	65.5	65.5	96	64.3	0	1	0	0.00	29.847	0	0.000	-100000.0
20080807 01:40	65.5	65.5	65.5	96	64.3	0	1	45	0.00	29.847	0	0.000	-100000.0
20080807 01:45	65.7	65.7	65.7	96	64.5	0	1	45	0.00	29.841	0	0.000	-100000.0
20080807 01:50	65.8	65.8	65.8	97	64.9	0	0	-100000	0.00	29.841	0	0.000	-100000.0
20080807 01:55	65.8	65.8	65.8	97	64.9	0	1	45	0.00	29.841	0	0.000	-100000.0
20080807 02:00	65.7	65.7	65.7	96	64.5	0	1	45	0.00	29.836	0	0.000	-100000.0
20080807 02:05	65.7	65.7	65.7	96	64.5	0	1	135	0.00	29.836	0	0.000	-100000.0
20080807 02:10	65.8	65.8	65.8	96	64.6	0	0	-100000	0.00	29.836	0	0.000	-100000.0
20080807 02:15	65.9	65.9	65.9	96	64.7	0	1	270	0.00	29.841	0	0.000	-100000.0
20080807 02:20	65.8	65.8	65.8	96	64.6	0	1	292	0.00	29.841	0	0.000	-100000.0
20080807 02:25	65.7	65.7	65.7	96	64.5	0	0	-100000	0.00	29.841	0	0.000	-100000.0
20080807 02:30	65.7	65.7	65.7	96	64.5	0	0	-100000	0.00	29.835	0	0.000	-100000.0
20080807 02:35	65.8	65.8	65.8	97	64.9	0	2	158	0.00	29.835	0	0.000	-100000.0
20080807 02:40	66.1	66.1	66.1	96	64.9	1	4	158	0.00	29.835	0	0.000	-100000.0
20080807 02:45	66.2	66.2	66.2	96	65.0	2	4	158	0.00	29.832	0	0.000	-100000.0
20080807 02:50	66.3	66.3	66.3	96	65.1	1	2	158	0.00	29.832	0	0.000	-100000.0
20080807 02:55	66.4	66.4	66.4	96	65.2	1	3	158	0.00	29.832	0	0.000	-100000.0
20080807 03:00	66.5	66.5	66.5	96	65.3	2	4	180	0.00	29.832	0	0.000	-100000.0
20080807 03:05	66.5	66.5	66.5	95	65.0	3	5	180	0.00	29.832	0	0.000	-100000.0
20080807 03:10	66.5	66.5	66.5	95	65.0	2	6	180	0.00	29.832	0	0.000	-100000.0
20080807 03:15	66.5	66.5	66.5	95	65.0	2	6	158	0.00	29.828	0	0.000	-100000.0
20080807 03:20	66.5	66.5	66.5	95	65.0	1	5	158	0.00	29.828	0	0.000	-100000.0
20080807 03:25	66.5	66.5	66.5	95	65.0	2	5	158	0.00	29.828	0	0.000	-100000.0
20080807 03:30	66.5	66.5	66.5	95	65.0	1	3	180	0.00	29.829	0	0.000	-100000.0
20080807 03:35	66.6	66.6	66.6	95	65.1	1	5	158	0.00	29.829	0	0.000	-100000.0
20080807 03:40	66.6	66.6	66.6	95	65.1	2	4	158	0.00	29.829	0	0.000	-100000.0
20080807 03:45	66.6	66.6	66.6	95	65.1	2	5	180	0.00	29.817	0	0.000	-100000.0
20080807 03:50	66.5	66.5	66.5	95	65.0	3	6	158	0.00	29.817	0	0.000	-100000.0
20080807 03:55	66.4	66.4	66.4	95	64.9	2	5	180	0.00	29.817	0	0.000	-100000.0
20080807 04:00	66.4	66.4	66.4	95	64.9	1	4	180	0.00	29.810	0	0.000	-100000.0
20080807 04:05	66.4	66.4	66.4	95	64.9	1	5	158	0.00	29.810	0	0.000	-100000.0
20080807 04:10	66.4	66.4	66.4	95	64.9	2	5	180	0.00	29.810	0	0.000	-100000.0
20080807 04:15	66.4	66.4	66.4	95	64.9	2	7	202	0.00	29.810	0	0.000	-100000.0
20080807 04:20	66.4	66.4	66.4	95	64.9	1	5	180	0.00	29.810	0	0.000	-100000.0
20080807 04:25	66.4	66.4	66.4	95	64.9	3	6	158	0.00	29.810	0	0.000	-100000.0
20080807 04:30	66.4	66.4	66.4	95	64.9	2	5	180	0.00	29.810	0	0.000	-100000.0
20080807 04:35	66.4	66.4	66.4	95	64.9	2	6	158	0.00	29.810	0	0.000	-100000.0
20080807 04:40	66.4	66.4	66.4	95	64.9	2	5	158	0.00	29.810	0	0.000	-100000.0
20080807 04:45	66.4	66.4	66.4	95	64.9	2	5	180	0.00	29.809	0	0.000	-100000.0
20080807 04:50	66.4	66.4	66.4	95	64.9	1	6	180	0.00	29.809	0	0.000	-100000.0
20080807 04:55	66.4	66.4	66.4	95	64.9	1	5	202	0.00	29.809	0	0.000	-100000.0
20080807 05:00	66.3	66.3	66.3	95	64.8	2	4	180	0.00	29.814	0	0.000	-100000.0
20080807 05:05	66.3	66.3	66.3	95	64.8	1	3	202	0.01	29.814	0	0.000	-100000.0
20080807 05:10	66.4	66.4	66.4	96	65.2	0	3	225	0.00	29.814	0	0.000	-100000.0
20080807 05:15	66.4	66.4	66.4	96	65.2	1	4	202	0.00	29.822	0	0.000	-100000.0
20080807 05:20	66.4	66.4	66.4	96	65.2	0	4	202	0.00	29.822	0	0.000	-100000.0
20080807 05:25	66.4	66.4	66.4	96	65.2	0	1	180	0.00	29.822	0	0.000	-100000.0
20080807 05:30	66.3	66.3	66.3	96	65.1	0	1	180	0.00	29.821	0	0.000	-100000.0
20080807 05:35	66.4	66.4	66.4	96	65.2	0	1	180	0.00	29.821	0	0.000	-100000.0
20080807 05:40	66.4	66.4	66.4	96	65.2	0	0	-100000	0.00	29.821	0	0.000	-100000.0
20080807 05:45	66.4	66.4	66.4	95	64.9	0	1	158	0.00	29.819	0	0.000	-100000.0
20080807 05:50	66.5	66.5	66.5	95	65.0	0	2	158	0.00	29.819	0	0.000	-100000.0
20080807 05:55	66.5	66.5	66.5	95	65.0	1	2	180	0.00	29.819	0	0.000	-100000.0
20080807 06:00	66.5	66.5	66.5	95	65.0	2	4	158	0.00	29.811	1	0.000	-100000.0
20080807 06:05	66.5	66.5	66.5	95	65.0	2	3	158	0.00	29.811	6	0.000	-100000.0
20080807 06:10	66.5	66.5	66.5	95	65.0	2	4	135	0.00	29.811	10	0.000	-100000.0
20080807 06:15	66.4	66.4	66.4	94	64.6	2	4	135	0.00	29.810	14	0.000	-100000.0
20080807 06:20	66.4	66.4	66.4	95	64.9	1	4	135	0.00	29.810	17	0.000	-100000.0
20080807 06:25	66.4	66.4	66.4	95	64.9	2	5	158	0.00	29.810	23	0.000	-100000.0
20080807 06:30	66.3	66.3	66.3	95	64.8	1	4	158	0.00	29.814	27	0.000	-100000.0
20080807 06:35	66.3	66.3	66.3	95	64.8	1	3	180	0.00	29.814	28	0.000	-100000.0
20080807 06:40	66.4	66.4	66.4	95	64.9	1	3	180	0.00	29.814	25	0.000	-100000.0
20080807 06:45	66.4	66.4	66.4	94	64.6	1	6	202	0.00	29.815	30	0.000	-100000.0
20080807 06:50	66.5	66.5	66.5	94	64.7	1	5	202	0.00	29.815	31	0.000	-100000.0
20080807 06:55	66.5	66.5	66.5	94	64.7	2	4	180	0.00	29.815	40	0.000	-100000.0
20080807 07:00	66.7	66.7	66.7	94	64.9	0	2	180	0.00	29.825	56	0.001	-100000.0
20080807 07:05	66.7	66.7	66.7	94	64.9	0	3	158	0.00	29.825	67	0.000	-100000.0
20080807 07:10	66.8	66.8	66.8	94	65.0	0	0	-100000	0.00	29.825	71	0.000	-100000.0
20080807 07:15	66.8	66.8	66.8	94	65.0	0	1	158	0.00	29.827	78	0.000	-100000.0
20080807 07:20	66.9	66.9	66.9	94	65.1	1	3	202	0.00	29.827	87	0.000	-100000.0
20080807 07:25	66.9	66.9	66.9	93	64.8	1	4	180	0.00	29.827	75	0.000	-100000.0
20080807 07:30	66.9	66.9	66.9	93	64.8	1	4	202	0.00	29.826	89	0.000	-100000.0
20080807 07:35	66.9	66.9	66.9	93	64.8	0	3	202	0.00	29.826	100	0.000	-100000.0
20080807 07:40	67.0	67.0	67.0	93	64.9	1	3	202	0.00	29.826	103	0.000	-100000.0
20080807 07:45	67.1	67.1	67.1	92	64.7	2	4	158	0.00	29.820	111	0.000	-100000.0
20080807 07:50	67.2	67.2	67.2	93	65.1	1	4	180	0.00	29.820	103	0.000	-100000.0
20080807 07:55	67.1	67.1	67.1	92	64.7	2	4	158	0.00	29.820	110	0.000	-100000.0
20080807 08:00	67.2	67.2	67.2	93	65.1	2	4	158	0.00	29.825	117	0.002	-100000.0
20080807 08:05	67.3	67.3	67.3	93	65.2	1	4	158	0.00	29.825	97	0.000	-100000.0
20080807 08:10	67.5	67.5	67.5	92	65.1	0	1	180	0.00	29.825	95	0.000	-100000.0
20080807 08:15	67.6	67.6	67.6	91	64.9	1	5	158	0.00	29.826	133	0.000	-100000.0
20080807 08:20	67.6	67.6	67.6	91	64.9	2	5	158	0.00	29.826	169	0.000	-100000.0
20080807 08:25	67.7	67.7	67.7	90	64.7	2	4	158	0.00	29.826	222	0.000	-100000.0
20080807 08:30	68.1	68.1	68.1	90	65.0	1	4	158	0.00	29.828	264	0.000	-100000.0
20080807 08:35	68.4	68.4	68.4	90	65.3	1	4	202	0.00	29.828	180	0.000	-100000.0
20080807 08:40	68.4	68.4	68.4	90	65.3	1	4	225	0.00	29.828	159	0.000	-100000.0
20080807 08:45	68.3	68.3	68.3	89	64.9	2	5	225	0.00	29.838	140	0.000	-100000.0
20080807 08:50	68.5	68.5	68.5	90	65.4	1	4	202	0.00	29.838	194	0.000	-100000.0
20080807 08:55	68.9	68.9	68.9	88	65.2	0	2	180	0.00	29.838	278	0.000	-100000.0
20080807 09:00	69.4	69.4	69.4	87	65.4	1	4	202	0.00	29.839	410	0.005	-100000.0
20080807 09:05	70.1	70.1	70.1	87	66.0	1	3	202	0.00	29.839	569	0.000	-100000.0
20080807 09:10	70.8	70.8	70.8	84	65.7	1	4	225	0.00	29.839	516	0.000	-100000.0
20080807 09:15	70.6	70.6	70.6	83	65.2	1	3	225	0.00	29.841	206	0.000	-100000.0
20080807 09:20	70.6	70.6	70.6	84	65.5	0	2	202	0.00	29.841	406	0.000	-100000.0
20080807 09:25	71.0	71.0	71.0	83	65.6	1	4	158	0.00	29.841	382	0.000	-100000.0
20080807 09:30	71.6	71.6	71.6	82	65.8	1	6	225	0.00	29.843	786	0.000	-100000.0
20080807 09:35	70.7	70.7	70.7	83	65.3	3	5	225	0.00	29.843	238	0.000	-100000.0
20080807 09:40	69.9	69.9	69.9	86	65.5	2	4	270	0.00	29.843	483	0.000	-100000.0
20080807 09:45	70.1	70.1	70.1	86	65.7	1	3	270	0.00	29.850	650	0.000	-100000.0
20080807 09:50	71.1	71.1	71.1	83	65.7	1	3	225	0.00	29.850	754	0.000	-100000.0
20080807 09:55	72.0	72.0	72.0	80	65.5	0	2	225	0.00	29.850	504	0.000	-100000.0
20080807 10:00	72.1	72.1	72.1	78	64.8	1	4	248	0.00	29.856	545	0.012	-100000.0
20080807 10:05	71.5	71.5	71.5	79	64.6	1	3	292	0.00	29.856	446	0.000	-100000.0
20080807 10:10	71.2	71.2	71.2	80	64.7	1	3	248	0.00	29.856	297	0.000	-100000.0
20080807 10:15	70.8	70.8	70.8	84	65.7	2	5	270	0.00	29.850	224	0.000	-100000.0
20080807 10:20	70.5	70.5	70.5	84	65.4	1	3	248	0.00	29.850	227	0.000	-100000.0
20080807 10:25	70.8	70.8	70.8	83	65.4	0	2	270	0.00	29.850	406	0.000	-100000.0
20080807 10:30	71.6	71.6	71.6	83	66.2	1	2	248	0.00	29.844	712	0.000	-100000.0
20080807 10:35	73.4	73.4	73.4	79	66.5	0	2	202	0.00	29.844	1007	0.000	-100000.0
20080807 10:40	75.1	75.1	76.5	73	65.8	1	4	135	0.00	29.844	872	0.000	-100000.0
20080807 10:45	74.8	74.8	74.8	73	65.5	2	4	45	0.00	29.849	571	0.000	-100000.0
20080807 10:50	74.8	74.8	74.8	73	65.5	1	3	158	0.00	29.849	428	0.000	-100000.0
20080807 10:55	75.0	75.0	76.3	74	66.1	1	3	270	0.00	29.849	414	0.000	-100000.0
20080807 11:00	75.0	75.0	76.1	76	66.9	0	1	248	0.00	29.845	423	0.012	-100000.0
20080807 11:05	75.0	75.0	76.2	75	66.5	0	2	338	0.00	29.845	548	0.000	-100000.0
20080807 11:10	75.4	75.4	76.7	74	66.5	0	1	270	0.00	29.845	678	0.000	-100000.0
20080807 11:15	75.7	75.7	77.1	74	66.8	1	3	292	0.00	29.841	552	0.000	-100000.0
20080807 11:20	75.5	75.5	76.8	74	66.6	1	3	248	0.00	29.841	443	0.000	-100000.0
20080807 11:25	75.7	75.7	77.1	73	66.4	1	3	270	0.00	29.841	350	0.000	-100000.0
20080807 11:30	75.7	75.7	77.1	74	66.8	0	2	45	0.00	29.840	391	0.000	-100000.0
20080807 11:35	75.3	75.3	76.6	74	66.4	1	4	22	0.00	29.840	416	0.000	-100000.0
20080807 11:40	74.6	74.6	74.6	75	66.1	2	3	315	0.00	29.840	355	0.000	-100000.0
20080807 11:45	74.7	74.7	74.7	75	66.2	1	4	338	0.00	29.836	418	0.000	-100000.0
20080807 11:50	75.4	75.4	76.6	75	66.9	2	5	68	0.00	29.836	863	0.000	-100000.0
20080807 11:55	75.5	75.5	76.8	74	66.6	2	4	112	0.00	29.836	724	0.000	-100000.0
20080807 12:00	75.7	75.7	77.1	73	66.4	1	5	68	0.00	29.825	294	0.014	-100000.0
20080807 12:05	75.6	75.6	77.0	73	66.3	3	6	135	0.00	29.825	249	0.000	-100000.0
20080807 12:10	76.3	76.3	77.9	72	66.6	2	6	135	0.00	29.825	943	0.000	-100000.0
20080807 12:15	76.6	76.6	78.3	70	66.1	4	11	112	0.00	29.819	996	0.000	-100000.0
20080807 12:20	77.1	77.1	78.9	69	66.1	2	5	68	0.00	29.819	693	0.000	-100000.0
20080807 12:25	77.3	77.3	79.1	70	66.7	2	5	112	0.00	29.819	1080	0.000	-100000.0
20080807 12:30	78.0	78.0	79.9	67	66.1	3	10	135	0.00	29.809	542	0.000	-100000.0
20080807 12:35	77.2	77.2	79.0	68	65.8	4	7	135	0.00	29.809	313	0.000	-100000.0
20080807 12:40	78.2	78.2	80.3	69	67.2	1	4	225	0.00	29.809	776	0.000	-100000.0
20080807 12:45	78.2	78.2	80.2	68	66.8	2	7	158	0.00	29.795	373	0.000	-100000.0
20080807 12:50	77.2	77.2	79.0	71	67.0	2	7	135	0.00	29.795	518	0.000	-100000.0
20080807 12:55	77.0	77.0	78.8	71	66.9	3	7	158	0.00	29.795	1026	0.000	-100000.0
20080807 13:00	77.5	77.5	79.4	68	66.1	2	5	158	0.00	29.790	798	0.018	-100000.0
20080807 13:05	77.5	77.5	79.3	65	64.8	1	3	135	0.00	29.790	279	0.000	-100000.0
20080807 13:10	77.9	77.9	79.8	66	65.6	0	0	-100000	0.00	29.790	309	0.000	-100000.0
20080807 13:15	78.4	78.4	80.4	67	66.5	0	2	338	0.00	29.786	309	0.000	-100000.0
20080807 13:20	78.3	78.3	80.2	66	66.0	1	3	270	0.00	29.786	235	0.000	-100000.0
20080807 13:25	78.4	78.4	80.4	66	66.1	0	3	158	0.00	29.786	244	0.000	-100000.0
20080807 13:30	78.4	78.4	80.3	65	65.6	2	6	202	0.00	29.775	370	0.000	-100000.0
20080807 13:35	78.7	78.7	80.6	64	65.5	4	10	158	0.00	29.775	1067	0.000	-100000.0
20080807 13:40	79.1	79.1	81.1	64	65.9	4	12	202	0.00	29.775	262	0.000	-100000.0
20080807 13:45	78.5	78.5	80.3	63	64.8	6	13	158	0.00	29.780	481	0.000	-100000.0
20080807 13:50	78.2	78.2	80.0	64	65.0	6	12	135	0.00	29.780	285	0.000	-100000.0
20080807 13:55	78.2	78.2	80.0	64	65.0	4	12	180	0.00	29.780	294	0.000	-100000.0
20080807 14:00	77.7	77.7	79.5	64	64.5	8	14	158	0.00	29.777	257	0.012	-100000.0
20080807 14:05	77.7	77.7	79.5	65	65.0	5	14	180	0.00	29.777	258	0.000	-100000.0
20080807 14:10	78.0	78.0	79.7	61	63.4	5	11	180	0.00	29.777	255	0.000	-100000.0
20080807 14:15	78.2	78.2	80.0	63	64.6	5	13	158	0.00	29.777	338	0.000	-100000.0
20080807 14:20	77.4	77.4	79.3	70	66.8	7	18	202	0.00	29.777	336	0.000	-100000.0
20080807 14:25	75.7	75.7	77.4	69	64.8	6	15	180	0.00	29.777	266	0.000	-100000.0
20080807 14:30	74.6	74.6	74.6	68	63.3	5	15	158	0.00	29.778	1079	0.000	-100000.0
20080807 14:35	74.9	74.9	74.9	67	63.2	5	15	202	0.00	29.778	791	0.000	-100000.0
20080807 14:40	74.5	74.5	74.5	66	62.4	4	14	202	0.00	29.778	206	0.000	-100000.0
20080807 14:45	72.8	72.8	72.8	68	61.6	4	12	270	0.00	29.789	106	0.000	-100000.0
20080807 14:50	72.3	72.3	72.3	70	62.0	0	2	68	0.00	29.789	108	0.000	-100000.0
20080807 14:55	71.5	71.5	71.5	72	62.0	3	7	0	0.00	29.789	83	0.000	-100000.0
20080807 15:00	69.9	69.9	69.9	76	62.0	6	13	292	0.00	29.814	61	0.010	-100000.0
20080807 15:05	68.6	68.6	68.6	79	61.8	2	6	0	0.00	29.814	86	0.000	-100000.0
20080807 15:10	67.7	67.7	67.7	82	62.0	1	5	22	0.00	29.814	110	0.000	-100000.0
20080807 15:15	67.0	67.0	67.0	82	61.3	4	9	90	0.00	29.799	126	0.000	-100000.0
20080807 15:20	66.5	66.5	66.5	85	61.8	2	6	112	0.00	29.799	125	0.000	-100000.0
20080807 15:25	66.5	66.5	66.5	88	62.8	1	4	68	0.00	29.799	109	0.000	-100000.0
20080807 15:30	66.2	66.2	66.2	89	62.9	2	5	112	0.00	29.798	126	0.000	-100000.0
20080807 15:35	66.1	66.1	66.1	91	63.4	2	5	45	0.00	29.798	165	0.000	-100000.0
20080807 15:40	65.7	65.7	65.7	91	63.0	2	4	112	0.00	29.798	191	0.000	-100000.0
20080807 15:45	65.8	65.8	65.8	91	63.1	3	5	135	0.00	29.794	237	0.000	-100000.0
20080807 15:50	66.3	66.3	66.3	92	63.9	1	5	112	0.00	29.794	341	0.000	-100000.0
20080807 15:55	67.3	67.3	67.3	93	65.2	1	4	90	0.00	29.794	745	0.000	-100000.0
20080807 16:00	68.3	68.3	68.3	91	65.6	2	7	135	0.00	29.780	680	0.006	-100000.0
20080807 16:05	69.2	69.2	69.2	89	65.8	1	3	112	0.00	29.780	662	0.000	-100000.0
20080807 16:10	70.5	70.5	70.5	86	66.1	1	3	180	0.00	29.780	658	0.000	-100000.0
20080807 16:15	71.8	71.8	71.8	84	66.7	1	3	225	0.00	29.770	654	0.000	-100000.0
20080807 16:20	71.5	71.5	71.5	80	65.0	4	6	270	0.00	29.770	649	0.000	-100000.0
20080807 16:25	72.3	72.3	72.3	81	66.1	1	5	180	0.00	29.770	635	0.000	-100000.0
20080807 16:30	73.6	73.6	73.6	82	67.8	1	3	202	0.00	29.776	619	0.000	-100000.0
20080807 16:35	74.3	74.3	74.3	79	67.4	1	3	248	0.00	29.776	599	0.000	-100000.0
20080807 16:40	74.6	74.6	74.6	80	68.0	1	3	248	0.00	29.776	560	0.000	-100000.0
20080807 16:45	74.8	74.8	74.8	76	66.7	1	3	158	0.00	29.776	598	0.000	-100000.0
20080807 16:50	75.1	75.1	76.4	74	66.2	1	3	158	0.00	29.776	310	0.000	-100000.0
20080807 16:55	75.6	75.6	77.2	70	65.1	0	4	180	0.00	29.776	188	0.000	-100000.0
20080807 17:00	75.2	75.2	76.6	73	65.9	0	3	45	0.00	29.783	235	0.013	-100000.0
20080807 17:05	74.5	74.5	74.5	78	67.2	0	3	22	0.00	29.783	281	0.000	-100000.0
20080807 17:10	74.2	74.2	74.2	80	67.6	0	1	22	0.00	29.783	215	0.000	-100000.0
20080807 17:15	73.9	73.9	73.9	78	66.6	0	2	22	0.00	29.793	219	0.000	-100000.0
20080807 17:20	73.6	73.6	73.6	78	66.3	0	2	158	0.00	29.793	152	0.000	-100000.0
20080807 17:25	73.5	73.5	73.5	79	66.6	0	1	45	0.00	29.793	84	0.000	-100000.0
20080807 17:30	72.7	72.7	72.7	81	66.5	1	4	338	0.00	29.780	58	0.000	-100000.0
20080807 17:35	72.0	72.0	72.0	82	66.2	1	7	158	0.00	29.780	71	0.000	-100000.0
20080807 17:40	70.8	70.8	70.8	81	64.7	5	11	135	0.00	29.780	56	0.000	-100000.0
20080807 17:45	70.0	70.0	70.0	82	64.2	4	10	135	0.00	29.780	87	0.000	-100000.0
20080807 17:50	69.8	69.8	69.8	82	64.0	3	9	135	0.00	29.780	104	0.000	-100000.0
20080807 17:55	69.7	69.7	69.7	83	64.3	4	11	90	0.00	29.780	114	0.000	-100000.0
20080807 18:00	69.5	69.5	69.5	83	64.1	4	10	135	0.00	29.780	112	0.003	-100000.0
20080807 18:05	69.3	69.3	69.3	82	63.6	3	8	135	0.00	29.780	96	0.000	-100000.0
20080807 18:10	69.1	69.1	69.1	82	63.4	4	9	112	0.00	29.780	65	0.000	-100000.0
20080807 18:15	68.9	68.9	68.9	83	63.5	4	7	112	0.00	29.777	46	0.000	-100000.0
20080807 18:20	68.8	68.8	68.8	84	63.8	2	5	45	0.00	29.777	30	0.000	-100000.0
20080807 18:25	68.7	68.7	68.7	84	63.7	1	4	68	0.00	29.777	21	0.000	-100000.0
20080807 18:30	68.5	68.5	68.5	83	63.1	1	4	68	0.00	29.780	13	0.000	-100000.0
20080807 18:35	68.5	68.5	68.5	83	63.1	4	7	135	0.00	29.780	12	0.000	-100000.0
20080807 18:40	68.6	68.6	68.6	82	62.9	3	7	135	0.00	29.780	13	0.000	-100000.0
20080807 18:45	68.6	68.6	68.6	83	63.2	1	5	45	0.00	29.782	10	0.000	-100000.0
20080807 18:50	68.3	68.3	68.3	85	63.6	0	2	0	0.00	29.782	4	0.000	-100000.0
20080807 18:55	67.8	67.8	67.8	86	63.5	2	5	315	0.00	29.782	0	0.000	-100000.0
20080807 19:00	67.4	67.4	67.4	87	63.4	3	9	315	0.00	29.796	0	0.001	-100000.0
20080807 19:05	66.9	66.9	66.9	87	62.9	6	15	338	0.00	29.796	0	0.000	-100000.0
20080807 19:10	66.1	66.1	66.1	88	62.4	7	17	338	0.00	29.796	0	0.000	-100000.0
20080807 19:15	65.2	65.2	65.2	89	61.9	7	13	338	0.00	29.813	0	0.000	-100000.0
20080807 19:20	64.4	64.4	64.4	91	61.7	6	11	315	0.00	29.813	0	0.000	-100000.0
20080807 19:25	64.0	64.0	64.0	92	61.6	8	17	270	0.00	29.813	0	0.000	-100000.0
20080807 19:30	64.0	64.0	64.0	92	61.6	5	19	270	0.00	29.809	0	0.000	-100000.0
20080807 19:35	63.6	63.6	63.6	93	61.5	6	11	315	0.00	29.809	0	0.000	-100000.0
20080807 19:40	63.3	63.3	63.3	94	61.5	5	11	292	0.00	29.809	0	0.000	-100000.0
20080807 19:45	63.1	63.1	63.1	94	61.3	2	4	315	0.00	29.813	0	0.000	-100000.0
20080807 19:50	63.1	63.1	63.1	94	61.3	2	3	338	0.00	29.813	0	0.000	-100000.0
20080807 19:55	63.1	63.1	63.1	94	61.3	3	8	68	0.00	29.813	0	0.000	-100000.0
20080807 20:00	63.1	63.1	63.1	94	61.3	3	7	22	0.00	29.809	0	0.001	-100000.0
20080807 20:05	63.1	63.1	63.1	94	61.3	2	6	90	0.00	29.809	0	0.000	-100000.0
20080807 20:10	63.1	63.1	63.1	94	61.3	3	6	90	0.00	29.809	0	0.000	-100000.0
20080807 20:15	63.1	63.1	63.1	94	61.3	3	7	68	0.00	29.797	0	0.000	-100000.0
20080807 20:20	63.2	63.2	63.2	93	61.1	3	7	112	0.00	29.797	0	0.000	-100000.0
20080807 20:25	63.6	63.6	63.6	93	61.5	3	11	158	0.00	29.797	0	0.000	-100000.0
20080807 20:30	63.6	63.6	63.6	94	61.8	1	6	225	0.00	29.799	0	0.000	-100000.0
20080807 20:35	63.5	63.5	63.5	94	61.7	1	5	158	0.00	29.799	0	0.000	-100000.0
20080807 20:40	63.5	63.5	63.5	94	61.7	1	4	90	0.00	29.799	0	0.000	-100000.0
20080807 20:45	63.4	63.4	63.4	94	61.6	1	2	0	0.00	29.792	0	0.000	-100000.0
20080807 20:50	63.3	63.3	63.3	94	61.5	0	2	0	0.00	29.792	0	0.000	-100000.0
20080807 20:55	63.2	63.2	63.2	95	61.7	0	1	90	0.00	29.792	0	0.000	-100000.0
20080807 21:00	63.1	63.1	63.1	95	61.6	0	2	338	0.00	29.781	0	0.000	-100000.0
20080807 21:05	63.0	63.0	63.0	95	61.5	0	2	315	0.00	29.781	0	0.000	-100000.0
20080807 21:10	63.0	63.0	63.0	95	61.5	0	2	292	0.00	29.781	0	0.000	-100000.0
20080807 21:15	63.0	63.0	63.0	96	61.8	0	2	270	0.00	29.782	0	0.000	-100000.0
20080807 21:20	62.9	62.9	62.9	96	61.7	0	1	270	0.00	29.782	0	0.000	-100000.0
20080807 21:25	62.9	62.9	62.9	95	61.4	0	1	270	0.00	29.782	0	0.000	-100000.0
20080807 21:30	62.9	62.9	62.9	96	61.7	0	1	22	0.00	29.772	0	0.000	-100000.0
20080807 21:35	62.9	62.9	62.9	96	61.7	0	1	22	0.00	29.772	0	0.000	-100000.0
20080807 21:40	62.8	62.8	62.8	96	61.6	0	1	22	0.00	29.772	0	0.000	-100000.0
20080807 21:45	62.7	62.7	62.7	96	61.5	0	1	22	0.00	29.768	0	0.000	-100000.0
20080807 21:50	62.7	62.7	62.7	96	61.5	0	2	292	0.00	29.768	0	0.000	-100000.0
20080807 21:55	62.7	62.7	62.7	96	61.5	0	0	-100000	0.00	29.768	0	0.000	-100000.0
20080807 22:00	62.7	62.7	62.7	96	61.5	0	1	270	0.00	29.778	0	0.000	-100000.0
20080807 22:05	62.7	62.7	62.7	96	61.5	0	0	-100000	0.00	29.778	0	0.000	-100000.0
20080807 22:10	62.8	62.8	62.8	96	61.6	1	4	270	0.00	29.778	0	0.000	-100000.0
20080807 22:15	62.7	62.7	62.7	96	61.5	2	3	270	0.00	29.782	0	0.000	-100000.0
20080807 22:20	62.7	62.7	62.7	96	61.5	1	3	292	0.00	29.782	0	0.000	-100000.0
20080807 22:25	62.7	62.7	62.7	96	61.5	1	2	338	0.00	29.782	0	0.000	-100000.0
20080807 22:30	62.6	62.6	62.6	96	61.4	1	4	338	0.00	29.779	0	0.000	-100000.0
20080807 22:35	62.5	62.5	62.5	96	61.3	2	3	315	0.00	29.779	0	0.000	-100000.0
20080807 22:40	62.3	62.3	62.3	96	61.1	2	4	338	0.00	29.779	0	0.000	-100000.0
20080807 22:45	62.4	62.4	62.4	96	61.2	0	2	0	0.00	29.772	0	0.000	-100000.0
20080807 22:50	62.3	62.3	62.3	96	61.1	0	1	22	0.00	29.772	0	0.000	-100000.0
20080807 22:55	62.3	62.3	62.3	96	61.1	0	1	22	0.00	29.772	0	0.000	-100000.0
20080807 23:00	62.4	62.4	62.4	96	61.2	0	1	22	0.00	29.765	0	0.000	-100000.0
20080807 23:05	62.3	62.3	62.3	96	61.1	0	1	0	0.00	29.765	0	0.000	-100000.0
20080807 23:10	62.3	62.3	62.3	96	61.1	0	1	0	0.00	29.765	0	0.000	-100000.0
20080807 23:15	62.4	62.4	62.4	96	61.2	0	1	45	0.00	29.764	0	0.000	-100000.0
20080807 23:20	62.3	62.3	62.3	96	61.1	0	1	338	0.00	29.764	0	0.000	-100000.0
20080807 23:25	62.3	62.3	62.3	96	61.1	0	2	292	0.00	29.764	0	0.000	-100000.0
20080807 23:30	62.2	62.2	62.2	96	61.0	0	1	270	0.00	29.768	0	0.000	-100000.0
20080807 23:35	62.3	62.3	62.3	96	61.1	0	1	22	0.00	29.768	0	0.000	-100000.0
20080807 23:40	62.5	62.5	62.5	97	61.6	0	1	22	0.00	29.768	0	0.000	-100000.0
20080807 23:45	62.4	62.4	62.4	96	61.2	0	2	22	0.00	29.767	0	0.000	-100000.0
20080807 23:50	62.3	62.3	62.3	96	61.1	1	2	0	0.00	29.767	0	0.000	-100000.0
20080807 23:55	62.3	62.3	62.3	96	61.1	0	1	22	0.00	29.767	0	0.000	-100000.0
